Bin Hui’s IS415-GAA Journal - Take-home Exercise 2: Application of Spatial and Spatio-temporal Analysis Methods to Discover the Distribution of Dengue Fever in Tainan City, Taiwan (Part 2)
…
Code

dengue_full_sf <- dengue_full_sf %>% left_join(dengue_epi_sf, join_by(VILLENG, TOWNID, `epiweek(發病日)`))  

Since we do not need the geometry.y column that is redundant and contains missing values, we can remove it using select() from dplyr, and rename geometry.x as geometry since it is our geometry column.

Code

dengue_full_sf <- dengue_full_sf %>% select(-geometry.y, -location.y) %>% rename(geometry = geometry.x, location = location.x)

Code

dengue_full_sf %>% dplyr::arrange(VILLENG)

# A tibble: 5,160 × 6
   VILLENG     TOWNID                  geometry `epiweek(發病日)` location cases
   <chr>       <chr>              <POLYGON [°]>             <dbl> <chr>    <int>
 1 Andong Vil. D06    ((120.2164 23.04019, 120…                31 Andong …     1
 2 Andong Vil. D06    ((120.2164 23.04019, 120…                32 Andong …    NA
 3 Andong Vil. D06    ((120.2164 23.04019, 120…                33 Andong …     2
 4 Andong Vil. D06    ((120.2164 23.04019, 120…                34 Andong …    NA
 5 Andong Vil. D06    ((120.2164 23.04019, 120…                35 Andong …     1
 6 Andong Vil. D06    ((120.2164 23.04019, 120…                36 Andong …     2
 7 Andong Vil. D06    ((120.2164 23.04019, 120…                37 Andong …     1
 8 Andong Vil. D06    ((120.2164 23.04019, 120…                38 Andong …     5
 9 Andong Vil. D06    ((120.2164 23.04019, 120…                39 Andong …     7
10 Andong Vil. D06    ((120.2164 23.04019, 120…                40 Andong …    14
# ℹ 5,150 more rows
…
We can see that after the data wrangling, we have 5160 records, which corresponds to our 258 villages x 20 epidemiology weeks of observations. Looking into the table, there are some records with NA cases, which represent 0 cases for those corresponding weeks and villages.

Step 3: Insert “0” values

Next, we should replace the NA values with 0 to prevent further complications later on, and to make those records appear clearer. To do so, we can use replace_na() from the tidyr package.

Code

dengue_full_sf$cases <- replace_na(dengue_full_sf$cases, 0)

Code

dengue_full_sf

# A tibble: 5,160 × 6
   VILLENG     TOWNID                  geometry `epiweek(發病日)` location cases
   <chr>       <chr>              <POLYGON [°]>             <dbl> <chr>    <int>
 1 Qingcao Vi… D06    ((120.1176 23.08387, 120…                31 Qingcao…     0
 2 Bao'an Vil. D32    ((120.2304 22.93544, 120…                31 Bao'an …     1
 3 Chihkan Vi… D08    ((120.2012 22.99966, 120…                31 Chihkan…     0
 4 Dacheng Vi… D02    ((120.1985 22.98147, 120…                31 Dacheng…     0
 5 Chengbei V… D06    ((120.1292 23.06512, 120…                31 Chengbe…     0
 6 Chengnan V… D06    ((120.1246 23.06904, 120…                31 Chengna…     0
 7 Fahua Vil.  D08    ((120.2094 22.98452, 120…                31 Fahua V…     0
 8 Hainan Vil. D06    ((120.175 23.02218, 120.…                31 Hainan …     0
 9 Guo'an Vil. D06    ((120.1866 23.02766, 120…                31 Guo'an …     0
10 Xixin Vil.  D06    ((120.1834 23.06086, 120…                31 Xixin V…     0
# ℹ 5,150 more rows
…
Step 2: Creating spacetime object

Here, we can create our spacetime object using spacetime() from sfdep.

Code

dengue_st <- spacetime(dengue_full_sf, taiwanstudy_sf,
         .loc_col = "location",.time_col = "epiweek(發病日)")

Code

dengue_st

# A tibble: 5,160 × 6
   VILLENG     TOWNID                  geometry `epiweek(發病日)` location cases
 * <chr>       <chr>              <POLYGON [°]>             <dbl> <chr>    <int>
 1 Qingcao Vi… D06    ((120.1176 23.08387, 120…                31 Qingcao…     0
 2 Bao'an Vil. D32    ((120.2304 22.93544, 120…                31 Bao'an …     1
 3 Chihkan Vi… D08    ((120.2012 22.99966, 120…                31 Chihkan…     0
 4 Dacheng Vi… D02    ((120.1985 22.98147, 120…                31 Dacheng…     0
 5 Chengbei V… D06    ((120.1292 23.06512, 120…                31 Chengbe…     0
 6 Chengnan V… D06    ((120.1246 23.06904, 120…                31 Chengna…     0
 7 Fahua Vil.  D08    ((120.2094 22.98452, 120…                31 Fahua V…     0
 8 Hainan Vil. D06    ((120.175 23.02218, 120.…                31 Hainan …     0
 9 Guo'an Vil. D06    ((120.1866 23.02766, 120…                31 Guo'an …     0
10 Xixin Vil.  D06    ((120.1834 23.06086, 120…                31 Xixin V…     0
# ℹ 5,150 more rows
…
In the above code:

group the rows by epiweek(發病日), using group_by() from dplyr package

create a new column with local_gstar_perm() computations from sfdep package

unnest gi_star column of the newly created gi_stars data.frame, using unnest() from tidyr package

The result of our code is shown below:

Code

gi_stars

# A tibble: 5,160 × 16
# Groups:   epiweek(發病日) [20]
   VILLENG     TOWNID                  geometry `epiweek(發病日)` location cases
   <chr>       <chr>              <POLYGON [°]>             <dbl> <chr>    <int>
 1 Qingcao Vi… D06    ((120.1176 23.08387, 120…                31 Qingcao…     0
 2 Bao'an Vil. D32    ((120.2304 22.93544, 120…                31 Bao'an …     1
 3 Chihkan Vi… D08    ((120.2012 22.99966, 120…                31 Chihkan…     0
 4 Dacheng Vi… D02    ((120.1985 22.98147, 120…                31 Dacheng…     0
 5 Chengbei V… D06    ((120.1292 23.06512, 120…                31 Chengbe…     0
 6 Chengnan V… D06    ((120.1246 23.06904, 120…                31 Chengna…     0
 7 Fahua Vil.  D08    ((120.2094 22.98452, 120…                31 Fahua V…     0
 8 Hainan Vil. D06    ((120.175 23.02218, 120.…                31 Hainan …     0
 9 Guo'an Vil. D06    ((120.1866 23.02766, 120…                31 Guo'an …     0
10 Xixin Vil.  D06    ((120.1834 23.06086, 120…                31 Xixin V…     0
# ℹ 5,150 more rows
# ℹ 10 more variables: nb <list>, wt <list>, gi_star <dbl>, e_gi <dbl>,
#   var_gi <dbl>, p_value <dbl>, p_sim <dbl>, p_folded_sim <dbl>,
#   skewness <dbl>, kurtosis <dbl>
…
