Bin Hui’s IS415-GAA Journal - Take-home Exercise 2: Application of Spatial and Spatio-temporal Analysis Methods to Discover the Distribution of Dengue Fever in Tainan City, Taiwan (Part 1)
…
Code

Dengue_Daily <- read_csv("data/aspatial/Dengue_Daily.csv")

3.2 Extraction of study fields

Next, we will use select() from the dplyr package again to select the relevant fields for our study. Here, we would select 發病日 which is the onset date of symptoms, and 最小統計區中心點X and 最小統計區中心點Y which are the x-coordinates and y-coordinates of the dengue cases.

Code

Dengue_Daily <- Dengue_Daily %>% select(發病日, 最小統計區中心點X, 最小統計區中心點Y)
Dengue_Daily

# A tibble: 106,861 × 3
   發病日     最小統計區中心點X 最小統計區中心點Y
   <date>     <chr>             <chr>            
 1 1998-01-02 120.505898941     22.464206650     
 2 1998-01-03 120.453657460     22.466338948     
 3 1998-01-13 121.751433765     24.749214667     
 4 1998-01-15 120.338158907     22.630316700     
 5 1998-01-20 121.798235373     24.684507639     
 6 1998-01-22 None              None             
 7 1998-01-23 121.547480075     24.982467229     
 8 1998-01-26 121.500936346     25.139302723     
 9 1998-02-11 120.209079313     22.978859098     
10 1998-02-16 120.313207729     22.724216594     
# ℹ 106,851 more rows

3.3 Checking for missing values

Again, it is always a good practice to check for missing values. From the earlier code, we see that missing values are denoted as “None” in this data set. Hence, we will use filter() from the dplyr package, and look for coordinate values that contain “None”.

Code

Dengue_Daily %>% filter(最小統計區中心點X == "None" | 最小統計區中心點Y == "None")

# A tibble: 780 × 3
   發病日     最小統計區中心點X 最小統計區中心點Y
   <date>     <chr>             <chr>            
 1 1998-01-22 None              None             
 2 1998-05-11 None              None             
 3 1998-07-25 None              None             
 4 1998-07-26 None              None             
 5 1998-07-27 None              None             
 6 1998-07-30 None              None             
 7 1998-09-02 None              None             
 8 1998-09-14 None              None             
 9 1998-09-25 None              None             
10 2000-03-17 None              None             
# ℹ 770 more rows
…
Code

DengueDaily_sf <- st_as_sf(Dengue_Daily, coords = c("最小統計區中心點X", "最小統計區中心點Y"), crs = 3824)

Code

DengueDaily_sf

Simple feature collection with 106081 features and 1 field
Geometry type: POINT
Dimension:     XY
Bounding box:  xmin: 118.3081 ymin: 21.92574 xmax: 121.9826 ymax: 26.15617
Geodetic CRS:  TWD97
# A tibble: 106,081 × 2
   發病日                geometry
 * <date>             <POINT [°]>
 1 1998-01-02 (120.5059 22.46421)
 2 1998-01-03 (120.4537 22.46634)
 3 1998-01-13 (121.7514 24.74921)
 4 1998-01-15 (120.3382 22.63032)
 5 1998-01-20 (121.7982 24.68451)
 6 1998-01-23 (121.5475 24.98247)
 7 1998-01-26  (121.5009 25.1393)
 8 1998-02-11 (120.2091 22.97886)
 9 1998-02-16 (120.3132 22.72422)
10 1998-02-17   (120.34 22.60703)
# ℹ 106,071 more rows
…
denguepoints_sf <- Denguedates_sf %>% st_join(taiwanstudy_sf, join = st_within)

The above code gives us the dengue fever layer within the study area in sf point features, confined to epidemiology weeks 31-50, 2023. Yay!

Code

denguepoints_sf

Simple feature collection with 10904 features and 3 fields
Geometry type: GEOMETRY
Dimension:     XY
Bounding box:  xmin: 118.3081 ymin: 21.98551 xmax: 121.8983 ymax: 25.20237
Geodetic CRS:  TWD97
# A tibble: 10,904 × 4
# Groups:   VILLENG [249]
   VILLENG     發病日     cases                                         geometry
   <chr>       <date>     <int>                                   <GEOMETRY [°]>
 1 Andong Vil. 2023-08-02     1                        POINT (120.2143 23.03558)
 2 Andong Vil. 2023-08-16     1                         POINT (120.2141 23.0306)
 3 Andong Vil. 2023-08-17     1                        POINT (120.2146 23.03379)
 4 Andong Vil. 2023-09-01     1                         POINT (120.2163 23.0386)
 5 Andong Vil. 2023-09-06     1                        POINT (120.2143 23.03558)
 6 Andong Vil. 2023-09-08     1                        POINT (120.2136 23.03202)
 7 Andong Vil. 2023-09-12     1                        POINT (120.2133 23.03384)
 8 Andong Vil. 2023-09-17     2 MULTIPOINT ((120.2145 23.03455), (120.2144 23.0…
 9 Andong Vil. 2023-09-20     1                        POINT (120.2146 23.03379)
10 Andong Vil. 2023-09-23     2 MULTIPOINT ((120.2144 23.03224), (120.2155 23.0…
# ℹ 10,894 more rows
…
In this section, we will be performing the global spatial autocorrelation analysis using sfdep methods to discover whether the distribution of dengue fever outbreak in Tainan City are randomly distributed, using Moran’s I statistic.

Since we are conducting the analysis only in terms of space (ignoring time variables), we can use the aggregated dengue observations based on only village boundaries, which we have derived earlier as dengue_aggregated_sf!

Code

dengue_aggregated_sf

Simple feature collection with 249 features and 2 fields
Geometry type: GEOMETRY
Dimension:     XY
Bounding box:  xmin: 120.0627 ymin: 22.89401 xmax: 120.2925 ymax: 23.09144
Geodetic CRS:  TWD97
# A tibble: 249 × 3
   VILLENG.x   total_cases                                              geometry
   <chr>             <int>                                         <POLYGON [°]>
 1 Andong Vil.          67 ((120.2164 23.0404, 120.2154 23.04033, 120.2153 23.0…
 2 Anfu Vil.           311 ((120.1932 23.0294, 120.1929 23.02938, 120.1926 23.0…
 3 Anhe Vil.            73 ((120.2258 23.04424, 120.2219 23.03862, 120.2219 23.…
 4 Ankang Vil.          97 ((120.2269 23.01413, 120.2274 23.01331, 120.2277 23.…
 5 Anqing Vil.         111 ((120.2113 23.04414, 120.2111 23.04413, 120.2108 23.…
 6 Anshun Vil.          34 ((120.2136 23.05601, 120.2136 23.05586, 120.2135 23.…
 7 Anxi Vil.           110 ((120.2123 23.03689, 120.212 23.03685, 120.2121 23.0…
 8 Bao'an Vil.          19 ((120.2304 22.93544, 120.2301 22.93511, 120.2301 22.…
 9 Beihua Vil.          82 ((120.2034 23.00257, 120.2032 23.0022, 120.2028 23.0…
10 Beimen Vil.         249 ((120.2176 23.02032, 120.2173 23.02013, 120.2172 23.…
# ℹ 239 more rows
…
wm_q <- dengue_aggregated_sf %>% mutate(nb = st_contiguity(geometry),
                                        wt = st_weights(nb, 
                                                        style = "W"),
                                        .before=1)

Code

wm_q

Simple feature collection with 249 features and 4 fields
Geometry type: GEOMETRY
Dimension:     XY
Bounding box:  xmin: 120.0627 ymin: 22.89401 xmax: 120.2925 ymax: 23.09144
Geodetic CRS:  TWD97
# A tibble: 249 × 5
   nb        wt        VILLENG.x   total_cases                          geometry
 * <nb>      <list>    <chr>             <int>                     <POLYGON [°]>
 1 <int [5]> <dbl [5]> Andong Vil.          67 ((120.2164 23.0404, 120.2154 23.…
 2 <int [5]> <dbl [5]> Anfu Vil.           311 ((120.1932 23.0294, 120.1929 23.…
 3 <int [7]> <dbl [7]> Anhe Vil.            73 ((120.2258 23.04424, 120.2219 23…
 4 <int [3]> <dbl [3]> Ankang Vil.          97 ((120.2269 23.01413, 120.2274 23…
 5 <int [4]> <dbl [4]> Anqing Vil.         111 ((120.2113 23.04414, 120.2111 23…
 6 <int [3]> <dbl [3]> Anshun Vil.          34 ((120.2136 23.05601, 120.2136 23…
 7 <int [8]> <dbl [8]> Anxi Vil.           110 ((120.2123 23.03689, 120.212 23.…
 8 <int [5]> <dbl [5]> Bao'an Vil.          19 ((120.2304 22.93544, 120.2301 22…
 9 <int [6]> <dbl [6]> Beihua Vil.          82 ((120.2034 23.00257, 120.2032 23…
10 <int [4]> <dbl [4]> Beimen Vil.         249 ((120.2176 23.02032, 120.2173 23…
# ℹ 239 more rows
…
