Bin Hui’s IS415-GAA Journal - Take-home Exercise 3: Prototyping Modules for Geospatial Analytics Shiny Application
…
Code

chas <- chas %>% select(3,4)

Code

chas

Simple feature collection with 645 features and 1 field
Geometry type: POINT
Dimension:     XY
Bounding box:  xmin: 11234.32 ymin: 27388.9 xmax: 45333 ymax: 48380.51
Projected CRS: SVY21 / Singapore TM
# A tibble: 645 × 2
              geometry NAME                                         
           <POINT [m]> <chr>                                        
 1 (32176.99 37348.35) Affinity Medical Clinic                      
 2 (39037.12 34234.33) BEDOK  CENTRAL CLINIC                        
 3  (39378.86 33601.1) BEDOK CLINIC & SURGERY(Family Medical Centre)
 4  (22295.64 46626.1) ACUMED MEDICAL GROUP                         
 5 (27353.89 30162.99) Beo Crescent Clinic & Surgery                
 6 (33064.94 35041.76) G.I.F.T MEDICAL CENTRE                       
 7 (34620.42 42646.27) DR JOYCE & PARTNERS FAMILY CLINIC            
 8 (29101.85 33647.61) DR LIM LEAN HUAT & ASSOCIATES PTE LTD        
 9 (28449.68 31527.59) DTAP @ Somerset                              
10  (25843.11 47551.7) DUXTON MEDICAL CLINIC CANBERRA               
# ℹ 635 more rows
…
Code

elderly <- elderly %>% group_by(PA, SZ) %>% summarise(sum(Pop))

Then, we rename the population size column “sum(Pop)” as ‘demand’. This represents the demand for elderly-related services in each planning area and subzone.

Code

elderly <- elderly %>% rename(demand = `sum(Pop)`)

Code

elderly

# A tibble: 332 × 3
# Groups:   PA [55]
   PA         SZ                     demand
   <chr>      <chr>                   <int>
 1 Ang Mo Kio Ang Mo Kio Town Centre   1520
 2 Ang Mo Kio Cheng San               10710
 3 Ang Mo Kio Chong Boon              11100
 4 Ang Mo Kio Kebun Bahru              9080
 5 Ang Mo Kio Sembawang Hills          2450
 6 Ang Mo Kio Shangri-La               7020
 7 Ang Mo Kio Tagore                   3070
 8 Ang Mo Kio Townsville               8370
 9 Ang Mo Kio Yio Chu Kang                0
10 Ang Mo Kio Yio Chu Kang East        1490
# ℹ 322 more rows

4 Joining geospatial and aspatial data

It’s time to combine the geospatial and aspatial data, using subzone and planning area names.

Code

mpsz_sf

Simple feature collection with 326 features and 2 fields
Geometry type: MULTIPOLYGON
Dimension:     XY
Bounding box:  xmin: 2667.538 ymin: 21448.47 xmax: 55941.94 ymax: 50256.33
Projected CRS: SVY21 / Singapore TM
# A tibble: 326 × 3
                                                      geometry SUBZONE PLAN_AREA
 *                                          <MULTIPOLYGON [m]> <chr>   <chr>    
 1 (((25910.34 29425.34, 26265.82 29209.49, 26238.95 29165.57… DEPOT … BUKIT ME…
 2 (((26750.09 29216.1, 26751.91 29173.68, 26762.63 29174.04,… BUKIT … BUKIT ME…
 3 (((29161.2 29723.07, 29189.03 29704.77, 29209.22 29691.86,… CHINAT… OUTRAM   
 4 (((29814.11 29616.89, 29806.68 29593.55, 29786.43 29615.23… PHILLIP DOWNTOWN…
 5 (((30137.77 29843.19, 30138.42 29841.86, 30160.07 29797.29… RAFFLE… DOWNTOWN…
 6 (((29699.44 29417.6, 29692.13 29405.75, 29690.85 29406.46,… CHINA … OUTRAM   
 7 (((27748.04 29953.49, 27826.68 29943.78, 27840.27 29944.76… TIONG … BUKIT ME…
 8 (((30844.87 29021.96, 30794.28 28944.99, 30649.08 29034.1,… BAYFRO… DOWNTOWN…
 9 (((27444.04 29961.41, 27446.8 29808.05, 27566.69 29810.9, … TIONG … BUKIT ME…
10 (((30436.73 29517.49, 30304.36 29415.54, 30214.96 29420.38… CLIFFO… DOWNTOWN…
# ℹ 316 more rows

Code

elderly

# A tibble: 332 × 3
# Groups:   PA [55]
   PA         SZ                     demand
   <chr>      <chr>                   <int>
 1 Ang Mo Kio Ang Mo Kio Town Centre   1520
 2 Ang Mo Kio Cheng San               10710
 3 Ang Mo Kio Chong Boon              11100
 4 Ang Mo Kio Kebun Bahru              9080
 5 Ang Mo Kio Sembawang Hills          2450
 6 Ang Mo Kio Shangri-La               7020
 7 Ang Mo Kio Tagore                   3070
 8 Ang Mo Kio Townsville               8370
 9 Ang Mo Kio Yio Chu Kang                0
10 Ang Mo Kio Yio Chu Kang East        1490
# ℹ 322 more rows
…
Code

mpsz_demand <- left_join(mpsz_sf, elderly, by = c('SUBZONE' = 'SZ', 'PLAN_AREA' = 'PA'))

Code

mpsz_demand

Simple feature collection with 326 features and 3 fields
Geometry type: MULTIPOLYGON
Dimension:     XY
Bounding box:  xmin: 2667.538 ymin: 21448.47 xmax: 55941.94 ymax: 50256.33
Projected CRS: SVY21 / Singapore TM
# A tibble: 326 × 4
                                               geometry SUBZONE PLAN_AREA demand
                                     <MULTIPOLYGON [m]> <chr>   <chr>      <int>
 1 (((25910.34 29425.34, 26265.82 29209.49, 26238.95 2… DEPOT … BUKIT ME…   1870
 2 (((26750.09 29216.1, 26751.91 29173.68, 26762.63 29… BUKIT … BUKIT ME…    460
 3 (((29161.2 29723.07, 29189.03 29704.77, 29209.22 29… CHINAT… OUTRAM      3590
 4 (((29814.11 29616.89, 29806.68 29593.55, 29786.43 2… PHILLIP DOWNTOWN…      0
 5 (((30137.77 29843.19, 30138.42 29841.86, 30160.07 2… RAFFLE… DOWNTOWN…      0
 6 (((29699.44 29417.6, 29692.13 29405.75, 29690.85 29… CHINA … OUTRAM       680
 7 (((27748.04 29953.49, 27826.68 29943.78, 27840.27 2… TIONG … BUKIT ME…   4090
 8 (((30844.87 29021.96, 30794.28 28944.99, 30649.08 2… BAYFRO… DOWNTOWN…      0
 9 (((27444.04 29961.41, 27446.8 29808.05, 27566.69 29… TIONG … BUKIT ME…   5140
10 (((30436.73 29517.49, 30304.36 29415.54, 30214.96 2… CLIFFO… DOWNTOWN…      0
# ℹ 316 more rows
…
