Bin Hui’s IS415-GAA Journal - Hands-on Exercise 1: Geospatial Data Wrangling with R
…
Sometimes, we encounter data such as the listing of Inside Airbnb. This type of data is aspatial data: it is not a geospatial data but among its data fields, there are two fields that capture the x- and y- coordinates of the data points.

1.8.1 Importing Aspatial Data

As the data is in csv format, we will use read_csv() of readr package to import listing.csv. The output R object is called listings and it is a tibble data frame.

listings <- read_csv("data/aspatial/listings.csv")

To check if the data file has been imported correctly, we can also use list() of Base R to check the tibble data frame.

list(listings)

[[1]]
# A tibble: 3,457 × 18
       id name      host_id host_name neighbourhood_group neighbourhood latitude
    <dbl> <chr>       <dbl> <chr>     <chr>               <chr>            <dbl>
 1  71609 Villa in…  367042 Belinda   East Region         Tampines          1.35
 2  71896 Home in …  367042 Belinda   East Region         Tampines          1.35
 3  71903 Home in …  367042 Belinda   East Region         Tampines          1.35
 4 275343 Rental u… 1439258 Kay       Central Region      Bukit Merah       1.29
 5 275344 Rental u… 1439258 Kay       Central Region      Bukit Merah       1.29
 6 289234 Home in …  367042 Belinda   East Region         Tampines          1.34
 7 294281 Rental u… 1521514 Elizabeth Central Region      Newton            1.31
 8 324945 Rental u… 1439258 Kay       Central Region      Bukit Merah       1.29
 9 330095 Rental u… 1439258 Kay       Central Region      Bukit Merah       1.29
10 369141 Place to… 1521514 Elizabeth Central Region      Newton            1.31
# ℹ 3,447 more rows
# ℹ 11 more variables: longitude <dbl>, room_type <chr>, price <dbl>,
#   minimum_nights <dbl>, number_of_reviews <dbl>, last_review <date>,
#   reviews_per_month <dbl>, calculated_host_listings_count <dbl>,
#   availability_365 <dbl>, number_of_reviews_ltm <dbl>, license <chr>
…
